<?xml version="1.0" encoding="utf-8"?>
<!-- Generator: Adobe Illustrator 25.4.1, SVG Export Plug-In . SVG Version: 6.00 Build 0)  -->
<svg version="1.1" xmlns="http://www.w3.org/2000/svg" xmlns:xlink="http://www.w3.org/1999/xlink" x="0px" y="0px"
	 viewBox="0 0 364 336" style="enable-background:new 0 0 364 336;" xml:space="preserve">
<style type="text/css">
	.st0{display:none;}
	.st1{display:inline;fill:#0F0026;}
	.st2{fill:#00C9E5;}
	.st3{fill:#F8F3FF;}
	.st4{fill:#FF27B7;}
	.st5{fill:#FFEE4D;}
	.st6{fill:#6024B5;}
	.st7{fill:none;}
</style>
<g id="Sfondo" class="st0">
	<rect class="st1" width="364" height="336"/>
</g>
<g id="LOGO">
	<g>
		<g>
			<g>
				<path class="st2" d="M214.2,164.7c-15.7,1.8-27,15.7-25.7,31.3c19-1.8,35.8-11.1,47.4-25C230.1,166.2,222.4,163.7,214.2,164.7z"
					/>
				<path class="st3" d="M130.8,157.3c-1.1-9.8-8.7-17.3-18-18.9c2.2,12.2,7.5,23.3,15.1,32.5C130.2,167,131.3,162.3,130.8,157.3z"
					/>
				<path class="st4" d="M156.8,147.8l-23.6,28.8c10,9.6,22.8,16.4,37.1,18.7l17.9-21.8L156.8,147.8z"/>
				<path class="st5" d="M214,157.6l29.3,2.7c5.7-10.1,8.9-21.8,8.9-34.3c0-4-0.4-8-1-11.8l-33-3L214,157.6z"/>
				<path class="st4" d="M217.6,65.5c-8.9-5.3-19.1-8.6-30-9.5l3.1,15.1L217.6,65.5z"/>
				<path class="st3" d="M249.2,105.6c-2.9-9.7-7.9-18.4-14.4-25.8l-1.2,25.1L249.2,105.6z"/>
				<path class="st2" d="M168.5,95l-23.3-28.9c-18.9,11.6-31.9,32-33.4,55.5l9.4,11.6L168.5,95z"/>
				<ellipse transform="matrix(0.3827 -0.9239 0.9239 0.3827 -4.1381 245.881)" class="st3" cx="181.9" cy="126" rx="28" ry="28"/>
				
					<ellipse transform="matrix(0.8053 -0.5929 0.5929 0.8053 -10.8424 143.2709)" class="st6" cx="212.7" cy="88.1" rx="16.4" ry="16.4"/>
				<path class="st5" d="M161.2,75c-0.8-6.8,4.1-13,10.9-13.7s13,4.1,13.7,10.9s-4.1,13-10.9,13.7C168.1,86.7,162,81.8,161.2,75z"/>
				<path class="st6" d="M141.7,149.6c-5.2,0.6-9.8-3.1-10.4-8.3c-0.6-5.2,3.1-9.8,8.3-10.4s9.8,3.1,10.4,8.3S146.9,149,141.7,149.6
					z"/>
			</g>
			<path class="st3" d="M280,224c-15.5,0-28,12.5-28,28s12.5,28,28,28c15.5,0,28-12.5,28-28S295.5,224,280,224 M280,265
				c-7.2,0-13-5.8-13-13s5.8-13,13-13c7.2,0,13,5.8,13,13S287.2,265,280,265"/>
			<path class="st3" d="M84,224c-15.5,0-28,12.5-28,28s12.5,28,28,28s28-12.5,28-28S99.5,224,84,224 M84,265c-7.2,0-13-5.8-13-13
				s5.8-13,13-13c7.2,0,13,5.8,13,13S91.2,265,84,265"/>
			<path class="st3" d="M159,227.2c-3-1.7-6.5-2.5-10.5-2.5c-3.3,0-6.4,0.6-8.9,1.9c-1.8,0.9-3.3,2-4.5,3.5v-4.3h-14.7v52.5H136
				v-30.6c0-2.7,0.8-4.8,2.4-6.4c1.6-1.6,3.6-2.4,6.1-2.4c2.5,0,4.5,0.8,6.1,2.4c1.6,1.6,2.4,3.7,2.4,6.4v30.6h15.7v-33.5
				c0-4-0.9-7.5-2.5-10.5C164.3,231.2,162,228.8,159,227.2z"/>
			<rect x="182.9" y="225.7" class="st3" width="15.7" height="52.5"/>
			<path class="st3" d="M231.9,227c-1.7,0.8-3.2,2.1-4.3,3.9v-5.1h-14.7v52.5h15.6v-28.2c0-3.5,1-6.3,2.9-8.2c2-1.9,4.5-2.9,7.7-2.9
				h7.2v-13.8h-5.8C237.2,225.2,234.3,225.8,231.9,227z"/>
		</g>
		<rect class="st7" width="364" height="336"/>
	</g>
</g>
</svg>
